…
    ## Warning: `data_frame()` is deprecated as of tibble 1.1.0.
    ## Please use `tibble()` instead.
    ## This warning is displayed once every 8 hours.
    ## Call `lifecycle::last_warnings()` to see where this warning was generated.

``` r
boot_straps
```

    ## # A tibble: 5,000 x 2
    ##    strap_number strap_sample      
    ##           <int> <list>            
    ##  1            1 <tibble [365 x 6]>
    ##  2            2 <tibble [365 x 6]>
    ##  3            3 <tibble [365 x 6]>
    ##  4            4 <tibble [365 x 6]>
    ##  5            5 <tibble [365 x 6]>
    ##  6            6 <tibble [365 x 6]>
    ##  7            7 <tibble [365 x 6]>
    ##  8            8 <tibble [365 x 6]>
    ##  9            9 <tibble [365 x 6]>
    ## 10           10 <tibble [365 x 6]>
    ## # ... with 4,990 more rows
…
